cir_sounder/cir_sounder.sim/sim_1/behav/xsim/simulate.log
Time resolution is 1 ps
Time=285000 | VALID | I_out=0x0006000700080009000a000b000c000d | Q_out=0xfffafff9fff8fff7fff6fff5fff4fff3
Time=295000 | VALID | I_out=0x000700080009000a000b000c000d000e | Q_out=0xfff9fff8fff7fff6fff5fff4fff3fff2
Time=305000 | VALID | I_out=0x00080009000a000b000c000d000e000f | Q_out=0xfff8fff7fff6fff5fff4fff3fff2fff1
Time=315000 | VALID | I_out=0x0009000a000b000c000d000e000f0010 | Q_out=0xfff7fff6fff5fff4fff3fff2fff1fff0
Time=325000 | VALID | I_out=0x000a000b000c000d000e000f00100011 | Q_out=0xfff6fff5fff4fff3fff2fff1fff0ffef
Time=335000 | VALID | I_out=0x000b000c000d000e000f001000110012 | Q_out=0xfff5fff4fff3fff2fff1fff0ffefffee
Time=345000 | VALID | I_out=0x000c000d000e000f0010001100120013 | Q_out=0xfff4fff3fff2fff1fff0ffefffeeffed
Time=355000 | VALID | I_out=0x000d000e000f00100011001200130014 | Q_out=0xfff3fff2fff1fff0ffefffeeffedffec
Time=365000 | VALID | I_out=0x000e000f001000110012001300140015 | Q_out=0xfff2fff1fff0ffefffeeffedffecffeb
Time=375000 | VALID | I_out=0x000f0010001100120013001400150016 | Q_out=0xfff1fff0ffefffeeffedffecffebffea
Time=385000 | VALID | I_out=0x00100011001200130014001500160017 | Q_out=0xfff0ffefffeeffedffecffebffeaffe9
Time=395000 | VALID | I_out=0x00110012001300140015001600170018 | Q_out=0xffefffeeffedffecffebffeaffe9ffe8
Time=405000 | VALID | I_out=0x00120013001400150016001700180019 | Q_out=0xffeeffedffecffebffeaffe9ffe8ffe7
Time=415000 | VALID | I_out=0x0013001400150016001700180019001a | Q_out=0xffedffecffebffeaffe9ffe8ffe7ffe6
Time=425000 | VALID | I_out=0x001400150016001700180019001a001b | Q_out=0xffecffebffeaffe9ffe8ffe7ffe6ffe5
Time=435000 | VALID | I_out=0x00150016001700180019001a001b001c | Q_out=0xffebffeaffe9ffe8ffe7ffe6ffe5ffe4
Time=435000 | LAST asserted, end of transmission
*** Testbench completed ***
$finish called at time : 460 ns : File "C:/Users/zheng/Dropbox/01_work/04_polar_radar/01_rfsoc/cir_sounder/cir_sounder.srcs/sim_1/new/payload_extract_tb.v" Line 116
